{
  "RN ten Doeschate": 3,
  "J Yadav": 4.142857142857143,
  "R Ashwin": 5.475,
  "Z Khan": 5.8,
  "MC Henriques": 5.8076923076923075,
  "S Nadeem": 5.857142857142857,
  "MA Starc": 6.111111111111111,
  "Parvez Rasool": 6.2,
  "SL Malinga": 6.746031746031746,
  "GB Hogg": 6.761904761904762
}